{
   "photos":{
      "page":1,
      "pages":4696,
      "perpage":20,
      "total":"93909",
      "photo":[
         {
            "id":"36763327182",
            "owner":"134880247@N03",
            "secret":"a3cc4d90d4",
            "server":"4410",
            "farm":5,
            "title":"Diego",
            "ispublic":1,
            "isfriend":0,
            "isfamily":0
         },
         {
            "id":"36122073693",
            "owner":"94890743@N05",
            "secret":"01f38af9b2",
            "server":"4359",
            "farm":5,
            "title":"Samantha",
            "ispublic":1,
            "isfriend":0,
            "isfamily":0
         },
         {
            "id":"36095944974",
            "owner":"94890743@N05",
            "secret":"d0910cd891",
            "server":"4398",
            "farm":5,
            "title":"Riley",
            "ispublic":1,
            "isfriend":0,
            "isfamily":0
         },
         {
            "id":"36929967735",
            "owner":"94890743@N05",
            "secret":"66b804a91b",
            "server":"4355",
            "farm":5,
            "title":"Lady",
            "ispublic":1,
            "isfriend":0,
            "isfamily":0
         },
         {
            "id":"36758584632",
            "owner":"94890743@N05",
            "secret":"493d0b169d",
            "server":"4370",
            "farm":5,
            "title":"Mingo",
            "ispublic":1,
            "isfriend":0,
            "isfamily":0
         },
         {
            "id":"36789833141",
            "owner":"94890743@N05",
            "secret":"24a989ce6a",
            "server":"4344",
            "farm":5,
            "title":"",
            "ispublic":1,
            "isfriend":0,
            "isfamily":0
         },
         {
            "id":"36758439862",
            "owner":"94890743@N05",
            "secret":"368410dfcd",
            "server":"4441",
            "farm":5,
            "title":"Roxy",
            "ispublic":1,
            "isfriend":0,
            "isfamily":0
         },
         {
            "id":"36120933073",
            "owner":"94890743@N05",
            "secret":"c83cb55a07",
            "server":"4433",
            "farm":5,
            "title":"Lizzy",
            "ispublic":1,
            "isfriend":0,
            "isfamily":0
         },
         {
            "id":"36929071705",
            "owner":"94890743@N05",
            "secret":"2bc5ae998a",
            "server":"4362",
            "farm":5,
            "title":"Phydeaux & Yvette",
            "ispublic":1,
            "isfriend":0,
            "isfamily":0
         },
         {
            "id":"36120424863",
            "owner":"94890743@N05",
            "secret":"23d2afb4ba",
            "server":"4375",
            "farm":5,
            "title":"Angus",
            "ispublic":1,
            "isfriend":0,
            "isfamily":0
         },
         {
            "id":"36788783391",
            "owner":"94890743@N05",
            "secret":"30895c472c",
            "server":"4406",
            "farm":5,
            "title":"Bruno",
            "ispublic":1,
            "isfriend":0,
            "isfamily":0
         },
         {
            "id":"36928319595",
            "owner":"94890743@N05",
            "secret":"5be432d345",
            "server":"4384",
            "farm":5,
            "title":"Baron",
            "ispublic":1,
            "isfriend":0,
            "isfamily":0
         },
         {
            "id":"36117622823",
            "owner":"158609737@N06",
            "secret":"48797bcf05",
            "server":"4437",
            "farm":5,
            "title":"Bicu\u00e7o, Arraial d'Ajuda-BA",
            "ispublic":1,
            "isfriend":0,
            "isfamily":0
         },
         {
            "id":"36522873020",
            "owner":"134310787@N04",
            "secret":"c4763fbec2",
            "server":"4414",
            "farm":5,
            "title":"Liebe ist...",
            "ispublic":1,
            "isfriend":0,
            "isfamily":0
         },
         {
            "id":"36077997034",
            "owner":"43827410@N03",
            "secret":"cbea8ec4b4",
            "server":"4418",
            "farm":5,
            "title":"Victor {EXPLORED}",
            "ispublic":1,
            "isfriend":0,
            "isfamily":0
         },
         {
            "id":"36911663885",
            "owner":"59133249@N05",
            "secret":"7a9ba2f66a",
            "server":"4419",
            "farm":5,
            "title":"Waikanae Beach",
            "ispublic":1,
            "isfriend":0,
            "isfamily":0
         },
         {
            "id":"36096099713",
            "owner":"145624044@N04",
            "secret":"5bd3e14e7e",
            "server":"4365",
            "farm":5,
            "title":"German Shepherd Puppy",
            "ispublic":1,
            "isfriend":0,
            "isfamily":0
         },
         {
            "id":"36900877045",
            "owner":"8296962@N05",
            "secret":"895d090a0a",
            "server":"4367",
            "farm":5,
            "title":"",
            "ispublic":1,
            "isfriend":0,
            "isfamily":0
         },
         {
            "id":"36501223530",
            "owner":"119557218@N03",
            "secret":"2f036182b1",
            "server":"4347",
            "farm":5,
            "title":"Skye",
            "ispublic":1,
            "isfriend":0,
            "isfamily":0
         },
         {
            "id":"36500443350",
            "owner":"50876967@N04",
            "secret":"232d923e81",
            "server":"4362",
            "farm":5,
            "title":"Sonamus Banquo",
            "ispublic":1,
            "isfriend":0,
            "isfamily":0
         }
      ]
   },
   "stat":"ok"
}
